{
  "categoryName": "Home Appliances | Buy Latest Home Appliances Online in India at CromaHamburger MenuHamburger MenuPencil Iconuser-circleMy AddressMy Ordermedalheart-straightMy DeviceMy Services",
  "categoryUrl": "https://www.croma.com/home-appliances/c/5",
  "totalProducts": 21,
  "products": [
    {
      "productId": "268398",
      "productName": "Croma Bracket For Air Conditioner (Powder Coating Process, Grey)",
      "brand": "Croma",
      "sellingPrice": "₹799",
      "actualPrice": "₹1,199",
      "discount": "33%",
      "discountAmount": "₹400",
      "productImage": "https://media.tatacroma.com/Croma%20Assets/Unclassified/Images/268398_f57lor.png",
      "productUrl": "https://www.croma.com/p/268398",
      "rating": 3.5,
      "reviewCount": 4,
      "availability": "Available",
      "category": "0",
      "subCategory": "8",
      "offers": [
        "1 Year Warranty"
      ],
      "additionalInfo": {
        "applianceType": "SA-LTD",
        "demoFlag": false,
        "productLiveDate": "2023-02-01T03:37:35"
      }
    },
    {
      "productId": "260392",
      "productName": "wipro 9 Watts Electric Powered LED Bulb (Voice Assistant Supported, NS9400, White)",
      "brand": "Wipro",
      "sellingPrice": "₹300",
      "actualPrice": "₹2,099",
      "discount": "86%",
      "discountAmount": "₹1,799",
      "productImage": "https://media.tatacroma.com/Croma%20Assets/Small%20Appliances/Lighting%20Products/Images/260392_0_hxpkty.png",
      "productUrl": "https://www.croma.com/p/260392",
      "rating": 3.8,
      "reviewCount": 10,
      "availability": "Available",
      "category": "5",
      "subCategory": "52",
      "offers": [],
      "additionalInfo": {
        "applianceType": "SA",
        "demoFlag": false,
        "productLiveDate": "2022-09-01T05:39:17"
      }
    },
    {
      "productId": "219044",
      "productName": "BAJAJ Majesty DX 6 1000 Watts Dry Iron (German Coating Technology, White)",
      "brand": "Bajaj",
      "sellingPrice": "₹579",
      "actualPrice": "₹920",
      "discount": "37%",
      "discountAmount": "₹341",
      "productImage": "https://media.tatacroma.com/Croma%20Assets/Small%20Appliances/Home%20Appliances/Images/219044_0_xqqoc4.png",
      "productUrl": "https://www.croma.com/p/219044",
      "rating": 4.2325581395,
      "reviewCount": 19,
      "availability": "Available",
      "category": "5",
      "subCategory": "980",
      "offers": [],
      "additionalInfo": {
        "applianceType": "SA-LTD",
        "demoFlag": false,
        "productLiveDate": "2019-09-30T03:42:03"
      }
    },
    {
      "productId": "317070",
      "productName": "Orient Fabrismooth 1000 Watts Dry Iron (Temperature Control, White)",
      "brand": "Orient",
      "sellingPrice": "₹480",
      "actualPrice": "₹1,040",
      "discount": "54%",
      "discountAmount": "₹560",
      "productImage": "https://media.tatacroma.com/Croma%20Assets/Small%20Appliances/Garment%20Care/Images/317070_0__DsDniRDLC.png?updatedAt=1753093086262",
      "productUrl": "https://www.croma.com/p/317070",
      "rating": 4.5,
      "reviewCount": 2,
      "availability": "Available",
      "category": "5",
      "subCategory": "980",
      "offers": [],
      "additionalInfo": {
        "applianceType": "SA",
        "demoFlag": false,
        "productLiveDate": "2025-07-22T03:29:39"
      }
    },
    {
      "productId": "210990",
      "productName": "Oakter OakRemote Universal Remote (360 Degree IP Coverage, White)",
      "brand": "Oakter",
      "sellingPrice": "₹3,334",
      "actualPrice": "₹4,590",
      "discount": "27%",
      "discountAmount": "₹1,256",
      "productImage": "https://media.tatacroma.com/Croma%20Assets/Small%20Appliances/Electrical%20Equipments/Images/8905857040414.png",
      "productUrl": "https://www.croma.com/p/210990",
      "rating": 4,
      "reviewCount": 1,
      "availability": "Available",
      "category": "997",
      "subCategory": "1020",
      "offers": [],
      "additionalInfo": {
        "applianceType": "SA",
        "demoFlag": false,
        "productLiveDate": "2020-04-24T01:06:31"
      }
    },
    {
      "productId": "217687",
      "productName": "SafeStab 11 Amps Voltage Stabilizer For 1.5T Air Conditioner (150 - 270 V, Digital Display, VST400D, White)",
      "brand": "SafeStab",
      "sellingPrice": "₹3,399",
      "actualPrice": "₹3,400",
      "discount": "0%",
      "discountAmount": "₹1",
      "productImage": "https://media.tatacroma.com/Croma%20Assets/Small%20Appliances/Electrical%20Equipments/Images/217687_0_oycwe5.png",
      "productUrl": "https://www.croma.com/p/217687",
      "rating": 3.9791666667,
      "reviewCount": 44,
      "availability": "Available",
      "category": "5",
      "subCategory": "53",
      "offers": [
        "Extra Rs.750 Off On Cart"
      ],
      "additionalInfo": {
        "applianceType": "SA-LTD",
        "demoFlag": false,
        "productLiveDate": "2020-05-13T07:19:47"
      }
    },
    {
      "productId": "307023",
      "productName": "Croma 6.5 kg 5 Star Semi Automatic Washing Machine with Built-in Soak Function (2025 Model, Burgundy)",
      "brand": "Croma",
      "sellingPrice": "₹7,990",
      "actualPrice": "₹12,000",
      "discount": "33%",
      "discountAmount": "₹4,010",
      "productImage": "https://media.tatacroma.com/307023_0_juwlak.png",
      "productUrl": "https://www.croma.com/p/307023",
      "rating": 3.8571428571,
      "reviewCount": 3,
      "availability": "Available",
      "category": "5",
      "subCategory": "48",
      "offers": [
        "Festive Special Price"
      ],
      "additionalInfo": {
        "applianceType": "LA-LTD",
        "demoFlag": false,
        "productLiveDate": "2025-02-07T05:36:09"
      }
    },
    {
      "productId": "311927",
      "productName": "Croma 7 in 1 Convertible 1.5 Ton 3 Star Inverter Split AC with Auto clean function (2025 Model, Copper Condenser, CRLA018IND283265)",
      "brand": "Croma",
      "sellingPrice": "₹30,990",
      "actualPrice": "₹37,500",
      "discount": "17%",
      "discountAmount": "₹6,510",
      "productImage": "https://media.tatacroma.com/311927_0_qbldwa.png",
      "productUrl": "https://www.croma.com/p/311927",
      "rating": 3.7936507937,
      "reviewCount": 33,
      "availability": "Available",
      "category": "5",
      "subCategory": "46",
      "offers": [
        "Festive offer 2000 Discount"
      ],
      "additionalInfo": {
        "applianceType": "LA-LTD",
        "demoFlag": false,
        "productLiveDate": "2025-01-28T11:07:10"
      }
    },
    {
      "productId": "243594",
      "productName": "Croma 7.5 kg 5 Star Fully Automatic Top Load Washing Machine ( Fuzzy Control, Grey)",
      "brand": "Croma",
      "sellingPrice": "₹13,790",
      "actualPrice": "₹24,000",
      "discount": "43%",
      "discountAmount": "₹10,210",
      "productImage": "https://media.tatacroma.com/Croma%20Assets/Large%20Appliances/Washers%20and%20Dryers/Images/243594_0_ixyl2n.png",
      "productUrl": "https://www.croma.com/p/243594",
      "rating": 3.3444444444,
      "reviewCount": 60,
      "availability": "Available",
      "category": "5",
      "subCategory": "48",
      "offers": [
        "Extra 500 Discount"
      ],
      "additionalInfo": {
        "applianceType": "LA",
        "demoFlag": false,
        "productLiveDate": "2022-01-14T04:51:24"
      }
    },
    {
      "productId": "315858",
      "productName": "Croma 1600 Watts 210ml Steam Iron (2025 Model, 360 Degree Swivel Cord, Brown)",
      "brand": "Croma",
      "sellingPrice": "₹799",
      "actualPrice": "₹2,000",
      "discount": "60%",
      "discountAmount": "₹1,201",
      "productImage": "https://media.tatacroma.com/Croma%20Assets/Small%20Appliances/Garment%20Care/Images/315858_0_QwW3-YYtm.png?updatedAt=1753361856500",
      "productUrl": "https://www.croma.com/p/315858",
      "rating": 2,
      "reviewCount": 1,
      "availability": "Available",
      "category": "5",
      "subCategory": "980",
      "offers": [
        "Festive offer 100 Discount"
      ],
      "additionalInfo": {
        "applianceType": "SA",
        "demoFlag": false,
        "productLiveDate": "2025-07-28T06:31:46"
      }
    },
    {
      "productId": "208969",
      "productName": "V-Guard 12 Amps Voltage Stabilizer For 1.5T Air Conditioner (170 - 270 V, Smart Digital Display, VG 400, Grey)",
      "brand": "V-Guard",
      "sellingPrice": "₹1,749",
      "actualPrice": "₹2,750",
      "discount": "36%",
      "discountAmount": "₹1,001",
      "productImage": "https://media.tatacroma.com/Croma%20Assets/Entertainment/Media%20Streaming%20Devices/Images/208969_0_wtgimc.png",
      "productUrl": "https://www.croma.com/p/208969",
      "rating": 3.8990825688,
      "reviewCount": 52,
      "availability": "Available",
      "category": "5",
      "subCategory": "53",
      "offers": [],
      "additionalInfo": {
        "applianceType": "SA-LTD",
        "demoFlag": false,
        "productLiveDate": "2018-06-12T08:45:44"
      }
    },
    {
      "productId": "302481",
      "productName": "Crompton Surebreeze Hill Briz 1 Star 1200mm 3 Blade Copper Motor Ceiling Fan (Inverter Compatibility, Brown)",
      "brand": "Crompton",
      "sellingPrice": "₹1,359",
      "actualPrice": "₹2,599",
      "discount": "48%",
      "discountAmount": "₹1,240",
      "productImage": "https://media.tatacroma.com/Croma%20Assets/Small%20Appliances/Fans/Images/302481_0_runoxw.png",
      "productUrl": "https://www.croma.com/p/302481",
      "rating": 4.2727272727,
      "reviewCount": 12,
      "availability": "Available",
      "category": "5",
      "subCategory": "51",
      "offers": [],
      "additionalInfo": {
        "applianceType": "SA-LTD",
        "demoFlag": false,
        "productLiveDate": "2023-10-24T08:19:06"
      }
    },
    {
      "productId": "302485",
      "productName": "Crompton Surebreeze Hill Briz 1 Star 1200mm 3 Blade Copper Motor Ceiling Fan (High Velocity, Ivory)",
      "brand": "Crompton",
      "sellingPrice": "₹1,299",
      "actualPrice": "₹2,599",
      "discount": "50%",
      "discountAmount": "₹1,300",
      "productImage": "https://media.tatacroma.com/Croma%20Assets/Small%20Appliances/Fans/Images/302485_0_yq1ms2.png",
      "productUrl": "https://www.croma.com/p/302485",
      "rating": 3.875,
      "reviewCount": 4,
      "availability": "Available",
      "category": "5",
      "subCategory": "51",
      "offers": [],
      "additionalInfo": {
        "applianceType": "SA-LTD",
        "demoFlag": false,
        "productLiveDate": "2023-10-24T08:26:28"
      }
    },
    {
      "productId": "257366",
      "productName": "DAIKIN Premium Series 1.5 Ton 3 Star Inverter Split Smart AC with Dew Clean Technology (Copper Condenser, ATKL50UV16V/U/V3)",
      "brand": "Daikin",
      "sellingPrice": "₹35,490",
      "actualPrice": "₹53,830",
      "discount": "34%",
      "discountAmount": "₹18,340",
      "productImage": "https://media.tatacroma.com/Croma%20Assets/Large%20Appliances/Air%20Conditioner/Images/257366_0_zzhlmu.png",
      "productUrl": "https://www.croma.com/p/257366",
      "rating": 4.1044776119,
      "reviewCount": 41,
      "availability": "Available",
      "category": "5",
      "subCategory": "46",
      "offers": [],
      "additionalInfo": {
        "applianceType": "LA",
        "demoFlag": false,
        "productLiveDate": "2022-07-04T12:07:29"
      }
    },
    {
      "productId": "300438",
      "productName": "Croma 6.5 kg 5 Star Fully Automatic Top Load Washing Machine (CRLW065FAF264504, Lint Filter, Inox Grey)",
      "brand": "Croma",
      "sellingPrice": "₹12,490",
      "actualPrice": "₹20,000",
      "discount": "38%",
      "discountAmount": "₹7,510",
      "productImage": "https://media.tatacroma.com/Croma%20Assets/Large%20Appliances/Washers%20and%20Dryers/Images/300438_0_b01owa.png",
      "productUrl": "https://www.croma.com/p/300438",
      "rating": 4.25,
      "reviewCount": 2,
      "availability": "Available",
      "category": "5",
      "subCategory": "48",
      "offers": [
        "Extra 500 Discount"
      ],
      "additionalInfo": {
        "applianceType": "LA-LTD",
        "demoFlag": false,
        "productLiveDate": "2024-10-04T11:16:51"
      }
    },
    {
      "productId": "311918",
      "productName": "Croma 7 in 1 Convertible 1 Ton 3 Star Inverter Split AC with Temperature Sensor (2025 Model, Copper Condenser, CRLA012IND283264)",
      "brand": "Croma",
      "sellingPrice": "₹28,490",
      "actualPrice": "₹33,300",
      "discount": "14%",
      "discountAmount": "₹4,810",
      "productImage": "https://media.tatacroma.com/311918_0_f4kxwv.png",
      "productUrl": "https://www.croma.com/p/311918",
      "rating": 3.3157894737,
      "reviewCount": 8,
      "availability": "Available",
      "category": "5",
      "subCategory": "46",
      "offers": [
        "Festive offer 2000 Discount"
      ],
      "additionalInfo": {
        "applianceType": "LA-LTD",
        "demoFlag": false,
        "productLiveDate": "2025-01-28T01:00:59"
      }
    },
    {
      "productId": "300154",
      "productName": "Crompton Energion Hyperjet 5 Star 1200mm 3 Blade BLDC Motor Ceiling Fan with Remote (Anti rust, Brown)",
      "brand": "Crompton",
      "sellingPrice": "₹2,299",
      "actualPrice": "₹4,849",
      "discount": "53%",
      "discountAmount": "₹2,550",
      "productImage": "https://media.tatacroma.com/Croma%20Assets/Small%20Appliances/Fans/Images/300154_0_kaagkp.png",
      "productUrl": "https://www.croma.com/p/300154",
      "rating": 3,
      "reviewCount": 7,
      "availability": "Available",
      "category": "5",
      "subCategory": "51",
      "offers": [],
      "additionalInfo": {
        "applianceType": "SA-LTD",
        "demoFlag": false,
        "productLiveDate": "2023-09-08T07:16:40"
      }
    },
    {
      "productId": "314791",
      "productName": " Blue Star P SERIES 1.5 Ton 3 Star Fixed Speed Window AC (2025 Model, Copper Condenser, WFE318P)",
      "brand": "Blue Star",
      "sellingPrice": "₹27,290",
      "actualPrice": "₹36,400",
      "discount": "25%",
      "discountAmount": "₹9,110",
      "productImage": "https://media.tatacroma.com/Croma%20Assets/Large%20Appliances/Air%20Conditioner/Images/314791_0_tntilr.png",
      "productUrl": "https://www.croma.com/p/314791",
      "rating": 0,
      "reviewCount": 0,
      "availability": "Available",
      "category": "5",
      "subCategory": "46",
      "offers": [],
      "additionalInfo": {
        "applianceType": "LA",
        "demoFlag": false,
        "productLiveDate": "2025-04-11T09:24:39"
      }
    },
    {
      "productId": "268029",
      "productName": "VOLTAS 183V Vectra Platina 4 in 1 Convertible 1.5 Ton 3 Star Inverter Split AC with Anti Microbial Air FIlteration (Copper Condenser, 4503448)",
      "brand": "Voltas",
      "sellingPrice": "₹31,490",
      "actualPrice": "₹59,790",
      "discount": "47%",
      "discountAmount": "₹28,300",
      "productImage": "https://media.tatacroma.com/Croma%20Assets/Large%20Appliances/Air%20Conditioner/Images/268029_0_c4qgok.png",
      "productUrl": "https://www.croma.com/p/268029",
      "rating": 3.152173913,
      "reviewCount": 17,
      "availability": "Available",
      "category": "5",
      "subCategory": "46",
      "offers": [],
      "additionalInfo": {
        "applianceType": "LA",
        "demoFlag": false,
        "productLiveDate": "2023-01-24T02:16:07"
      }
    },
    {
      "productId": "300475",
      "productName": "Croma 8 kg 5 Star Semi Automatic Washing Machine with Magic Filter (CRLW080SMF248602, Black)",
      "brand": "Croma",
      "sellingPrice": "₹10,490",
      "actualPrice": "₹16,000",
      "discount": "34%",
      "discountAmount": "₹5,510",
      "productImage": "https://media.tatacroma.com/Croma%20Assets/Large%20Appliances/Washers%20and%20Dryers/Images/300475_0_kaffyj.png",
      "productUrl": "https://www.croma.com/p/300475",
      "rating": 4.3333333333,
      "reviewCount": 7,
      "availability": "Available",
      "category": "5",
      "subCategory": "48",
      "offers": [
        "Extra 500 Discount"
      ],
      "additionalInfo": {
        "applianceType": "LA-LTD",
        "demoFlag": false,
        "productLiveDate": "2024-06-11T02:36:20"
      }
    },
    {
      "productId": "300594",
      "productName": "Croma 1400W Fan Room Heater with Adjustable Thermostat (Noiseless Operation",
      "brand": "Croma",
      "sellingPrice": "₹1,219",
      "actualPrice": "₹2,100",
      "discount": "42%",
      "discountAmount": "₹881",
      "productImage": "https://media.tatacroma.com/Croma%20Assets/Small%20Appliances/Room%20Heaters/Images/300594_3_tzyecp.png",
      "productUrl": "https://www.croma.com/p/300594",
      "rating": 2.375,
      "reviewCount": 3,
      "availability": "Available",
      "category": "5",
      "subCategory": "899",
      "offers": [
        "Over Heat Protection"
      ],
      "additionalInfo": {
        "applianceType": "SA-LTD",
        "demoFlag": false,
        "productLiveDate": "2023-11-10T04:40:48"
      }
    }
  ],
  "breadcrumbs": [],
  "filters": {},
  "pagination": {
    "currentPage": 0,
    "pageSize": 21,
    "totalPages": 128,
    "totalResults": 2676
  },
  "scrapedAt": "2025-10-03T07:53:39.559Z"
}