{
  "categoryName": "Home Appliances | Buy Latest Home Appliances Online in India at Croma",
  "categoryUrl": "https://www.croma.com/home-appliances/c/5?q=%3Adiscount-desc%3AZAStatusFlag%3Atrue%3AskuStockFlag%3Atrue%3AskuStockFlag%3Atrue",
  "totalProducts": 21,
  "products": [
    {
      "productId": "315967",
      "productName": "DREAME Mova K10 Pro 220W Cordless Wet & Dry Vacuum Cleaner with Smart Dirt Detection (LED Display, White)",
      "brand": "DREAME",
      "sellingPrice": "₹19,999",
      "actualPrice": "₹2,29,999",
      "discount": "91%",
      "discountAmount": "₹2,10,000",
      "productImage": "https://media.tatacroma.com/Croma%20Assets/Small%20Appliances/Vacuum%20Cleaners/Images/315967_0_bji3qo.png",
      "productUrl": "https://www.croma.com/p/315967",
      "rating": 0,
      "reviewCount": 0,
      "availability": "Available",
      "category": "5",
      "subCategory": "50",
      "offers": [
        "Extra Rs.2500 Bank Offer"
      ],
      "additionalInfo": {
        "applianceType": "LA",
        "demoFlag": false,
        "productLiveDate": "2025-06-12T02:07:46"
      }
    },
    {
      "productId": "235133",
      "productName": "ECOVACS Deebot 25 Watts Robotic Vacuum Cleaner (520 ml, DEEBOT500, Black)",
      "brand": "Ecovacs",
      "sellingPrice": "₹2,934",
      "actualPrice": "₹27,900",
      "discount": "89%",
      "discountAmount": "₹24,966",
      "productImage": "https://media.tatacroma.com/Croma%20Assets/Small%20Appliances/Vacuum%20Cleaners/Images/235133_jey5m9.png",
      "productUrl": "https://www.croma.com/p/235133",
      "rating": 3.5,
      "reviewCount": 0,
      "availability": "Available",
      "category": "5",
      "subCategory": "50",
      "offers": [
        "10% Upto 2k on Cart above 10k"
      ],
      "additionalInfo": {
        "applianceType": "LA",
        "demoFlag": false,
        "productLiveDate": "2021-06-17T05:59:46"
      }
    },
    {
      "productId": "315962",
      "productName": "DREAME R10 Pro 425W Cordless Dry Vacuum Cleaner with LED Light (150 Air Watts Suction, Black)",
      "brand": "DREAME",
      "sellingPrice": "₹15,999",
      "actualPrice": "₹1,39,999",
      "discount": "89%",
      "discountAmount": "₹1,24,000",
      "productImage": "https://media.tatacroma.com/Croma%20Assets/Small%20Appliances/Vacuum%20Cleaners/Images/315962_0_zurpmg.png",
      "productUrl": "https://www.croma.com/p/315962",
      "rating": 0,
      "reviewCount": 0,
      "availability": "Available",
      "category": "5",
      "subCategory": "50",
      "offers": [
        "Extra Rs.2100 Bank Offer"
      ],
      "additionalInfo": {
        "applianceType": "LA",
        "demoFlag": false,
        "productLiveDate": "2025-06-12T12:59:08"
      }
    },
    {
      "productId": "315795",
      "productName": "DREAME D9 Max Gen 2 Robotic Vacuum Cleaner & Mop with Auto Dock Recharging (Pathfinder Technology, Black)",
      "brand": "DREAME",
      "sellingPrice": "₹17,999",
      "actualPrice": "₹1,49,999",
      "discount": "88%",
      "discountAmount": "₹1,32,000",
      "productImage": "https://media.tatacroma.com/Croma%20Assets/Small%20Appliances/Vacuum%20Cleaners/Images/315795_0_r7mmz7.png",
      "productUrl": "https://www.croma.com/p/315795",
      "rating": 0,
      "reviewCount": 0,
      "availability": "Available",
      "category": "5",
      "subCategory": "50",
      "offers": [
        "Extra Rs.2300 Bank Offer"
      ],
      "additionalInfo": {
        "applianceType": "SA",
        "demoFlag": false,
        "productLiveDate": "2025-06-11T06:29:00"
      }
    },
    {
      "productId": "315964",
      "productName": "DREAME D10 Plus Gen 2 Robotic Vacuum Cleaner & Mop with Self Emptying (Pathfinder Technology, White)",
      "brand": "DREAME",
      "sellingPrice": "₹22,999",
      "actualPrice": "₹1,79,999",
      "discount": "87%",
      "discountAmount": "₹1,57,000",
      "productImage": "https://media.tatacroma.com/Croma%20Assets/Small%20Appliances/Vacuum%20Cleaners/Images/315964_0_omckxw.png",
      "productUrl": "https://www.croma.com/p/315964",
      "rating": 0,
      "reviewCount": 0,
      "availability": "Available",
      "category": "5",
      "subCategory": "50",
      "offers": [
        "Extra Rs.3500 Bank Offer"
      ],
      "additionalInfo": {
        "applianceType": "LA",
        "demoFlag": false,
        "productLiveDate": "2025-06-12T01:35:50"
      }
    },
    {
      "productId": "315798",
      "productName": "DREAME L10 Prime Robotic Vacuum Cleaner & Mop with LiDAR Navigation (Mop Self Cleaning, White)",
      "brand": "DREAME",
      "sellingPrice": "₹29,999",
      "actualPrice": "₹2,29,999",
      "discount": "87%",
      "discountAmount": "₹2,00,000",
      "productImage": "https://media.tatacroma.com/Croma%20Assets/Small%20Appliances/Vacuum%20Cleaners/Images/315798_0_bm8dwy.png",
      "productUrl": "https://www.croma.com/p/315798",
      "rating": 0,
      "reviewCount": 0,
      "availability": "Available",
      "category": "5",
      "subCategory": "50",
      "offers": [
        "Extra Rs.4000 Bank Offer"
      ],
      "additionalInfo": {
        "applianceType": "LA",
        "demoFlag": false,
        "productLiveDate": "2025-06-11T06:30:12"
      }
    },
    {
      "productId": "253057",
      "productName": "Croma 6 Amps 2 Sockets Surge Protector with Individual Switch (0.8 Meters, Safety Shutters in Socket, CRSP2WMSPA264301, Black)",
      "brand": "Croma",
      "sellingPrice": "₹294",
      "actualPrice": "₹2,000",
      "discount": "85%",
      "discountAmount": "₹1,706",
      "productImage": "https://media.tatacroma.com/Croma%20Assets/Computers%20Peripherals/Cables%20and%20Connectors/Images/253057_0_gocsks.png",
      "productUrl": "https://www.croma.com/p/253057",
      "rating": 5,
      "reviewCount": 4,
      "availability": "Available",
      "category": "5",
      "subCategory": "53",
      "offers": [
        "1 Year Warranty"
      ],
      "additionalInfo": {
        "applianceType": "SA",
        "demoFlag": false,
        "productLiveDate": "2022-10-11T12:12:35"
      }
    },
    {
      "productId": "242346",
      "productName": "HAVELLS Puro DX 15 Litres 5 Star Vertical Storage Water Geyser with 8  Bar (Ivory Pink)",
      "brand": "Havells",
      "sellingPrice": "₹2,584",
      "actualPrice": "₹16,740",
      "discount": "85%",
      "discountAmount": "₹14,156",
      "productImage": "https://media.tatacroma.com/Croma%20Assets/Small%20Appliances/Geysers/Images/242346_pvycjj.png",
      "productUrl": "https://www.croma.com/p/242346",
      "rating": 0,
      "reviewCount": 0,
      "availability": "Available",
      "category": "5",
      "subCategory": "803",
      "offers": [
        "10% Upto 2k on Cart above 10k"
      ],
      "additionalInfo": {
        "applianceType": "LA",
        "demoFlag": false,
        "productLiveDate": "2021-10-19T08:42:32"
      }
    },
    {
      "productId": "315861",
      "productName": "DREAME H12 Dual 300W Cordless Wet & Dry Vacuum Cleaner with 4-in-1 Combination Cleaning (LED Display, Black)",
      "brand": "DREAME",
      "sellingPrice": "₹33,999",
      "actualPrice": "₹1,99,999",
      "discount": "83%",
      "discountAmount": "₹1,66,000",
      "productImage": "https://media.tatacroma.com/Croma%20Assets/Small%20Appliances/Vacuum%20Cleaners/Images/315861_0_khwaee.png",
      "productUrl": "https://www.croma.com/p/315861",
      "rating": 0,
      "reviewCount": 0,
      "availability": "Available",
      "category": "5",
      "subCategory": "50",
      "offers": [
        "10% Upto 2k on Cart above 10k"
      ],
      "additionalInfo": {
        "applianceType": "LA",
        "demoFlag": false,
        "productLiveDate": "2025-06-12T06:44:04"
      }
    },
    {
      "productId": "315860",
      "productName": "DREAME Mova J10 150W Cordless Dry Vacuum Cleaner with Illumination Technology (43 Air Watts Suction, Black)",
      "brand": "DREAME",
      "sellingPrice": "₹6,999",
      "actualPrice": "₹39,999",
      "discount": "83%",
      "discountAmount": "₹33,000",
      "productImage": "https://media.tatacroma.com/Croma%20Assets/Small%20Appliances/Vacuum%20Cleaners/Images/315860_0_fgb9oy.png",
      "productUrl": "https://www.croma.com/p/315860",
      "rating": 0,
      "reviewCount": 0,
      "availability": "Available",
      "category": "5",
      "subCategory": "50",
      "offers": [
        "10% Upto 2k on Cart above 10k"
      ],
      "additionalInfo": {
        "applianceType": "LA",
        "demoFlag": false,
        "productLiveDate": "2025-06-12T06:31:12"
      }
    },
    {
      "productId": "228928",
      "productName": "MILAGROW Seagull 30 Watts Robotic Vacuum Cleaner (Wet & Dry, Alexa Voice Enabled, 0.65 L, White)",
      "brand": "Milagrow",
      "sellingPrice": "₹3,994",
      "actualPrice": "₹21,990",
      "discount": "82%",
      "discountAmount": "₹17,996",
      "productImage": "https://media.tatacroma.com/Croma%20Assets/Small%20Appliances/Vacuum%20Cleaners/Images/228928_lodib4.png",
      "productUrl": "https://www.croma.com/p/228928",
      "rating": 3.3333333333,
      "reviewCount": 1,
      "availability": "Available",
      "category": "5",
      "subCategory": "50",
      "offers": [
        "10% Upto 2k on Cart above 10k"
      ],
      "additionalInfo": {
        "applianceType": "SA",
        "demoFlag": false,
        "productLiveDate": "2020-09-09T11:40:55"
      }
    },
    {
      "productId": "315963",
      "productName": "DREAME Mova J20 250W Cordless Dry Vacuum Cleaner with Illumination Technology (76 Air Watts Suction, Black)",
      "brand": "DREAME",
      "sellingPrice": "₹9,999",
      "actualPrice": "₹54,999",
      "discount": "82%",
      "discountAmount": "₹45,000",
      "productImage": "https://media.tatacroma.com/Croma%20Assets/Small%20Appliances/Vacuum%20Cleaners/Images/315963_0_ua8tbg.png",
      "productUrl": "https://www.croma.com/p/315963",
      "rating": 0,
      "reviewCount": 0,
      "availability": "Available",
      "category": "5",
      "subCategory": "50",
      "offers": [
        "10% Upto 2k on Cart above 10k"
      ],
      "additionalInfo": {
        "applianceType": "LA",
        "demoFlag": false,
        "productLiveDate": "2025-06-12T01:17:39"
      }
    },
    {
      "productId": "315859",
      "productName": "DREAME Mova J30 450W Cordless Dry Vacuum Cleaner with Illumination Technology (144 Air Watts Suction, Black)",
      "brand": "DREAME",
      "sellingPrice": "₹12,999",
      "actualPrice": "₹69,999",
      "discount": "81%",
      "discountAmount": "₹57,000",
      "productImage": "https://media.tatacroma.com/Croma%20Assets/Small%20Appliances/Vacuum%20Cleaners/Images/315859_0_vq88bl.png",
      "productUrl": "https://www.croma.com/p/315859",
      "rating": 0,
      "reviewCount": 0,
      "availability": "Available",
      "category": "5",
      "subCategory": "50",
      "offers": [
        "10% Upto 2k on Cart above 10k"
      ],
      "additionalInfo": {
        "applianceType": "LA",
        "demoFlag": false,
        "productLiveDate": "2025-06-12T03:18:10"
      }
    },
    {
      "productId": "249164",
      "productName": "Tineco Floor One S3 Wet & Dry Vacuum Cleaner (TINS3, Aqua)",
      "brand": "Tineco",
      "sellingPrice": "₹11,904",
      "actualPrice": "₹59,900",
      "discount": "80%",
      "discountAmount": "₹47,996",
      "productImage": "https://media.tatacroma.com/Croma%20Assets/Small%20Appliances/Vacuum%20Cleaners/Images/249164_cq3r4z.png",
      "productUrl": "https://www.croma.com/p/249164",
      "rating": 0,
      "reviewCount": 0,
      "availability": "Available",
      "category": "5",
      "subCategory": "50",
      "offers": [
        "10% Upto 2k on Cart above 10k"
      ],
      "additionalInfo": {
        "applianceType": "LA",
        "demoFlag": false,
        "productLiveDate": "2022-03-10T11:03:36"
      }
    },
    {
      "productId": "315966",
      "productName": "DREAME L10s Pro Ultra Robotic Vacuum Cleaner & Mop with Self Emptying (MopExtend Technology, White)",
      "brand": "DREAME",
      "sellingPrice": "₹49,999",
      "actualPrice": "₹2,49,999",
      "discount": "80%",
      "discountAmount": "₹2,00,000",
      "productImage": "https://media.tatacroma.com/Croma%20Assets/Small%20Appliances/Vacuum%20Cleaners/Images/315966_0_mby5vj.png",
      "productUrl": "https://www.croma.com/p/315966",
      "rating": 0,
      "reviewCount": 0,
      "availability": "Available",
      "category": "5",
      "subCategory": "50",
      "offers": [
        "Extra Rs.5000 Bank Offer"
      ],
      "additionalInfo": {
        "applianceType": "LA",
        "demoFlag": false,
        "productLiveDate": "2025-06-11T06:33:49"
      }
    },
    {
      "productId": "315802",
      "productName": "DREAME X40 Ultra Robotic Vacuum Cleaner & Mop with Self Emptying (MopExtend RoboSwing Technology, White)",
      "brand": "DREAME",
      "sellingPrice": "₹79,999",
      "actualPrice": "₹3,99,999",
      "discount": "80%",
      "discountAmount": "₹3,20,000",
      "productImage": "https://media.tatacroma.com/Croma%20Assets/Small%20Appliances/Vacuum%20Cleaners/Images/315802_0_vvck7c.png",
      "productUrl": "https://www.croma.com/p/315802",
      "rating": 0,
      "reviewCount": 0,
      "availability": "Available",
      "category": "5",
      "subCategory": "50",
      "offers": [
        "10% Upto 2k on Cart above 10k"
      ],
      "additionalInfo": {
        "applianceType": "LA",
        "demoFlag": false,
        "productLiveDate": "2025-06-11T06:32:12"
      }
    },
    {
      "productId": "305259",
      "productName": "nex Glyde A50 4 Star 1200mm 3 Blade BLDC Motor Ceiling Fan (Dust Resistant, Snow White)",
      "brand": "NEX",
      "sellingPrice": "₹2,934",
      "actualPrice": "₹14,590",
      "discount": "80%",
      "discountAmount": "₹11,656",
      "productImage": "https://media.tatacroma.com/Croma%20Assets/Small%20Appliances/Fans/Images/305259_0_ejq7fm.png",
      "productUrl": "https://www.croma.com/p/305259",
      "rating": 0,
      "reviewCount": 0,
      "availability": "Available",
      "category": "5",
      "subCategory": "51",
      "offers": [
        "10% Upto 2k on Cart above 10k"
      ],
      "additionalInfo": {
        "applianceType": "LA",
        "demoFlag": false,
        "productLiveDate": "2024-03-26T05:42:31"
      }
    },
    {
      "productId": "243009",
      "productName": "MILAGROW 24 Watts Robotic Vacuum Cleaner (0.6 Litres Tank, Silverfox)",
      "brand": "Milagrow",
      "sellingPrice": "₹6,614",
      "actualPrice": "₹31,990",
      "discount": "79%",
      "discountAmount": "₹25,376",
      "productImage": "https://media.tatacroma.com/Croma%20Assets/Small%20Appliances/Vacuum%20Cleaners/Images/243009_m4cvub.png",
      "productUrl": "https://www.croma.com/p/243009",
      "rating": 0,
      "reviewCount": 0,
      "availability": "Available",
      "category": "5",
      "subCategory": "50",
      "offers": [
        "10% Upto 2k on Cart above 10k"
      ],
      "additionalInfo": {
        "applianceType": "SA",
        "demoFlag": false,
        "productLiveDate": "2021-10-21T01:17:25"
      }
    },
    {
      "productId": "271801",
      "productName": "Qubo B22 12 Watts Electric Powered Smart Bulb (1200 Lumens, HLB16D1001, White)",
      "brand": "Qubo",
      "sellingPrice": "₹524",
      "actualPrice": "₹2,490",
      "discount": "79%",
      "discountAmount": "₹1,966",
      "productImage": "https://media.tatacroma.com/Croma%20Assets/Small%20Appliances/Lighting%20Products/Images/271801_kpas01.png",
      "productUrl": "https://www.croma.com/p/271801",
      "rating": 2.5,
      "reviewCount": 2,
      "availability": "Available",
      "category": "5",
      "subCategory": "52",
      "offers": [
        "10% Upto 2k on Cart above 10k"
      ],
      "additionalInfo": {
        "applianceType": "SA-LTD",
        "demoFlag": false,
        "productLiveDate": "2023-04-12T04:42:24"
      }
    },
    {
      "productId": "271679",
      "productName": "Qubo B22 9 Watts Electric Powered Smart Bulb (860 Lumens, HLB06D1001, White)",
      "brand": "Qubo",
      "sellingPrice": "₹444",
      "actualPrice": "₹1,990",
      "discount": "78%",
      "discountAmount": "₹1,546",
      "productImage": "https://media.tatacroma.com/Croma%20Assets/Small%20Appliances/Lighting%20Products/Images/271679_0_lbmusl.png",
      "productUrl": "https://www.croma.com/p/271679",
      "rating": 2.3333333333,
      "reviewCount": 1,
      "availability": "Available",
      "category": "5",
      "subCategory": "52",
      "offers": [
        "10% Upto 2k on Cart above 10k"
      ],
      "additionalInfo": {
        "applianceType": "SA-LTD",
        "demoFlag": false,
        "productLiveDate": "2023-04-12T02:20:43"
      }
    },
    {
      "productId": "316285",
      "productName": "ECOVACS Deebot N20 Pro Robotic Vacuum Cleaner & Mop with ZeroTangle Anti Tangle Technology (OZMO Pro 2.0 Vibrating Mopping System, White)",
      "brand": "Ecovacs",
      "sellingPrice": "₹22,499",
      "actualPrice": "₹99,900",
      "discount": "77%",
      "discountAmount": "₹77,401",
      "productImage": "https://media.tatacroma.com/Croma%20Assets/Small%20Appliances/Vacuum%20Cleaners/Images/316285_0_fnbaur.png",
      "productUrl": "https://www.croma.com/p/316285",
      "rating": 0,
      "reviewCount": 0,
      "availability": "Available",
      "category": "5",
      "subCategory": "50",
      "offers": [
        "Extra Rs.2200 Bank Offer"
      ],
      "additionalInfo": {
        "applianceType": "SA",
        "demoFlag": false,
        "productLiveDate": "2025-06-16T10:49:45"
      }
    }
  ],
  "breadcrumbs": [],
  "filters": {},
  "pagination": {
    "currentPage": 0,
    "pageSize": 21,
    "totalPages": 127,
    "totalResults": 2658
  },
  "scrapedAt": "2025-09-24T08:19:26.827Z"
}